%!PS-Adobe-3.0 EPSF-3.0
%%Title: divB_quad_deg2.eps
%%Creator: matplotlib version 3.3.4, http://matplotlib.org/
%%CreationDate: Sun Apr 11 11:36:12 2021
%%Orientation: portrait
%%BoundingBox: 79.10340908203125 226.18687500000004 532.8965909179688 565.8131249999999
%%EndComments
%%BeginProlog
/mpldict 9 dict def
mpldict begin
/m { moveto } bind def
/l { lineto } bind def
/r { rlineto } bind def
/c { curveto } bind def
/cl { closepath } bind def
/box {
      m
      1 index 0 r
      0 exch r
      neg 0 r
      cl
    } bind def
/clipbox {
      box
      clip
      newpath
    } bind def
%!PS-Adobe-3.0 Resource-Font
%%Title: DejaVu Sans
%%Copyright: Copyright (c) 2003 by Bitstream, Inc. All Rights Reserved. Copyright (c) 2006 by Tavmjong Bah. All Rights Reserved. DejaVu changes are in public domain 
%%Creator: Converted from TrueType to type 3 by PPR
25 dict begin
/_d{bind def}bind def
/_m{moveto}_d
/_l{lineto}_d
/_cl{closepath eofill}_d
/_c{curveto}_d
/_sc{7 -1 roll{setcachedevice}{pop pop pop pop pop pop}ifelse}_d
/_e{exec}_d
/FontName /DejaVuSans def
/PaintType 0 def
/FontMatrix[.001 0 0 .001 0 0]def
/FontBBox[-1021 -463 1793 1232]def
/FontType 3 def
/Encoding [ /space /parenleft /parenright /zero /one /two /three /four /five /six /seven /eight /Q /a /d /e /g /r /t /u /bar /Omega /partialdiff /minus ] def
/FontInfo 10 dict dup begin
/FamilyName (DejaVu Sans) def
/FullName (DejaVu Sans) def
/Notice (Copyright (c) 2003 by Bitstream, Inc. All Rights Reserved. Copyright (c) 2006 by Tavmjong Bah. All Rights Reserved. DejaVu changes are in public domain ) def
/Weight (Book) def
/Version (Version 2.35) def
/ItalicAngle 0.0 def
/isFixedPitch false def
/UnderlinePosition -130 def
/UnderlineThickness 90 def
end readonly def
/CharStrings 25 dict dup begin
/.notdef 0 def
/space{318 0 0 0 0 0 _sc
}_d
/parenleft{390 0 86 -131 310 759 _sc
310 759 _m
266 683 234 609 213 536 _c
191 463 181 389 181 314 _c
181 238 191 164 213 91 _c
234 17 266 -56 310 -131 _c
232 -131 _l
183 -54 146 20 122 94 _c
98 168 86 241 86 314 _c
86 386 98 459 122 533 _c
146 607 182 682 232 759 _c
310 759 _l
_cl}_d
/parenright{390 0 80 -131 304 759 _sc
80 759 _m
158 759 _l
206 682 243 607 267 533 _c
291 459 304 386 304 314 _c
304 241 291 168 267 94 _c
243 20 206 -54 158 -131 _c
80 -131 _l
123 -56 155 17 177 91 _c
198 164 209 238 209 314 _c
209 389 198 463 177 536 _c
155 609 123 683 80 759 _c
_cl}_d
/zero{636 0 66 -13 570 742 _sc
318 664 _m
267 664 229 639 203 589 _c
177 539 165 464 165 364 _c
165 264 177 189 203 139 _c
229 89 267 64 318 64 _c
369 64 407 89 433 139 _c
458 189 471 264 471 364 _c
471 464 458 539 433 589 _c
407 639 369 664 318 664 _c
318 742 _m
399 742 461 709 505 645 _c
548 580 570 486 570 364 _c
570 241 548 147 505 83 _c
461 19 399 -13 318 -13 _c
236 -13 173 19 130 83 _c
87 147 66 241 66 364 _c
66 486 87 580 130 645 _c
173 709 236 742 318 742 _c
_cl}_d
/one{636 0 110 0 544 729 _sc
124 83 _m
285 83 _l
285 639 _l
110 604 _l
110 694 _l
284 729 _l
383 729 _l
383 83 _l
544 83 _l
544 0 _l
124 0 _l
124 83 _l
_cl}_d
/two{{636 0 73 0 536 742 _sc
192 83 _m
536 83 _l
536 0 _l
73 0 _l
73 83 _l
110 121 161 173 226 239 _c
290 304 331 346 348 365 _c
380 400 402 430 414 455 _c
426 479 433 504 433 528 _c
433 566 419 598 392 622 _c
365 646 330 659 286 659 _c
255 659 222 653 188 643 _c
154 632 117 616 78 594 _c
78 694 _l
118 710 155 722 189 730 _c
223 738 255 742 284 742 _c
}_e{359 742 419 723 464 685 _c
509 647 532 597 532 534 _c
532 504 526 475 515 449 _c
504 422 484 390 454 354 _c
446 344 420 317 376 272 _c
332 227 271 164 192 83 _c
_cl}_e}_d
/three{{636 0 76 -13 556 742 _sc
406 393 _m
453 383 490 362 516 330 _c
542 298 556 258 556 212 _c
556 140 531 84 482 45 _c
432 6 362 -13 271 -13 _c
240 -13 208 -10 176 -4 _c
144 1 110 10 76 22 _c
76 117 _l
103 101 133 89 166 81 _c
198 73 232 69 268 69 _c
330 69 377 81 409 105 _c
441 129 458 165 458 212 _c
458 254 443 288 413 312 _c
383 336 341 349 287 349 _c
}_e{202 349 _l
202 430 _l
291 430 _l
339 430 376 439 402 459 _c
428 478 441 506 441 543 _c
441 580 427 609 401 629 _c
374 649 336 659 287 659 _c
260 659 231 656 200 650 _c
169 644 135 635 98 623 _c
98 711 _l
135 721 170 729 203 734 _c
235 739 266 742 296 742 _c
370 742 429 725 473 691 _c
517 657 539 611 539 553 _c
539 513 527 479 504 451 _c
481 423 448 403 406 393 _c
_cl}_e}_d
/four{636 0 49 0 580 729 _sc
378 643 _m
129 254 _l
378 254 _l
378 643 _l
352 729 _m
476 729 _l
476 254 _l
580 254 _l
580 172 _l
476 172 _l
476 0 _l
378 0 _l
378 172 _l
49 172 _l
49 267 _l
352 729 _l
_cl}_d
/five{{636 0 77 -13 549 729 _sc
108 729 _m
495 729 _l
495 646 _l
198 646 _l
198 467 _l
212 472 227 476 241 478 _c
255 480 270 482 284 482 _c
365 482 429 459 477 415 _c
525 370 549 310 549 234 _c
549 155 524 94 475 51 _c
426 8 357 -13 269 -13 _c
238 -13 207 -10 175 -6 _c
143 -1 111 6 77 17 _c
77 116 _l
106 100 136 88 168 80 _c
199 72 232 69 267 69 _c
}_e{323 69 368 83 401 113 _c
433 143 450 183 450 234 _c
450 284 433 324 401 354 _c
368 384 323 399 267 399 _c
241 399 214 396 188 390 _c
162 384 135 375 108 363 _c
108 729 _l
_cl}_e}_d
/six{{636 0 70 -13 573 742 _sc
330 404 _m
286 404 251 388 225 358 _c
199 328 186 286 186 234 _c
186 181 199 139 225 109 _c
251 79 286 64 330 64 _c
374 64 409 79 435 109 _c
461 139 474 181 474 234 _c
474 286 461 328 435 358 _c
409 388 374 404 330 404 _c
526 713 _m
526 623 _l
501 635 476 644 451 650 _c
425 656 400 659 376 659 _c
310 659 260 637 226 593 _c
}_e{192 549 172 482 168 394 _c
187 422 211 444 240 459 _c
269 474 301 482 336 482 _c
409 482 467 459 509 415 _c
551 371 573 310 573 234 _c
573 159 550 99 506 54 _c
462 9 403 -13 330 -13 _c
246 -13 181 19 137 83 _c
92 147 70 241 70 364 _c
70 479 97 571 152 639 _c
206 707 280 742 372 742 _c
396 742 421 739 447 735 _c
472 730 498 723 526 713 _c
_cl}_e}_d
/seven{636 0 82 0 551 729 _sc
82 729 _m
551 729 _l
551 687 _l
286 0 _l
183 0 _l
432 646 _l
82 646 _l
82 729 _l
_cl}_d
/eight{{636 0 68 -13 568 742 _sc
318 346 _m
271 346 234 333 207 308 _c
180 283 167 249 167 205 _c
167 161 180 126 207 101 _c
234 76 271 64 318 64 _c
364 64 401 76 428 102 _c
455 127 469 161 469 205 _c
469 249 455 283 429 308 _c
402 333 365 346 318 346 _c
219 388 _m
177 398 144 418 120 447 _c
96 476 85 511 85 553 _c
85 611 105 657 147 691 _c
188 725 245 742 318 742 _c
}_e{390 742 447 725 489 691 _c
530 657 551 611 551 553 _c
551 511 539 476 515 447 _c
491 418 459 398 417 388 _c
464 377 501 355 528 323 _c
554 291 568 251 568 205 _c
568 134 546 80 503 43 _c
459 5 398 -13 318 -13 _c
237 -13 175 5 132 43 _c
89 80 68 134 68 205 _c
68 251 81 291 108 323 _c
134 355 171 377 219 388 _c
183 544 _m
183 506 194 476 218 455 _c
}_e{242 434 275 424 318 424 _c
360 424 393 434 417 455 _c
441 476 453 506 453 544 _c
453 582 441 611 417 632 _c
393 653 360 664 318 664 _c
275 664 242 653 218 632 _c
194 611 183 582 183 544 _c
_cl}_e}_d
/Q{{787 0 56 -128 731 742 _sc
394 662 _m
322 662 265 635 223 582 _c
181 528 160 456 160 364 _c
160 272 181 199 223 146 _c
265 92 322 66 394 66 _c
465 66 522 92 564 146 _c
606 199 627 272 627 364 _c
627 456 606 528 564 582 _c
522 635 465 662 394 662 _c
532 13 _m
662 -128 _l
543 -128 _l
435 -11 _l
424 -11 416 -12 410 -12 _c
404 -12 399 -13 394 -13 _c
291 -13 209 21 148 89 _c
}_e{86 157 56 248 56 364 _c
56 479 86 571 148 639 _c
209 707 291 742 394 742 _c
496 742 577 707 639 639 _c
700 571 731 479 731 364 _c
731 279 714 206 680 146 _c
646 86 596 41 532 13 _c
_cl}_e}_d
/a{{613 0 60 -13 522 560 _sc
343 275 _m
270 275 220 266 192 250 _c
164 233 150 205 150 165 _c
150 133 160 107 181 89 _c
202 70 231 61 267 61 _c
317 61 357 78 387 114 _c
417 149 432 196 432 255 _c
432 275 _l
343 275 _l
522 312 _m
522 0 _l
432 0 _l
432 83 _l
411 49 385 25 355 10 _c
325 -5 287 -13 243 -13 _c
187 -13 142 2 109 33 _c
76 64 60 106 60 159 _c
}_e{60 220 80 266 122 298 _c
163 329 224 345 306 345 _c
432 345 _l
432 354 _l
432 395 418 427 391 450 _c
364 472 326 484 277 484 _c
245 484 215 480 185 472 _c
155 464 127 453 100 439 _c
100 522 _l
132 534 164 544 195 550 _c
226 556 256 560 286 560 _c
365 560 424 539 463 498 _c
502 457 522 395 522 312 _c
_cl}_e}_d
/d{{635 0 55 -13 544 760 _sc
454 464 _m
454 760 _l
544 760 _l
544 0 _l
454 0 _l
454 82 _l
435 49 411 25 382 10 _c
353 -5 319 -13 279 -13 _c
213 -13 159 13 117 65 _c
75 117 55 187 55 273 _c
55 359 75 428 117 481 _c
159 533 213 560 279 560 _c
319 560 353 552 382 536 _c
411 520 435 496 454 464 _c
148 273 _m
148 207 161 155 188 117 _c
215 79 253 61 301 61 _c
}_e{348 61 385 79 413 117 _c
440 155 454 207 454 273 _c
454 339 440 390 413 428 _c
385 466 348 485 301 485 _c
253 485 215 466 188 428 _c
161 390 148 339 148 273 _c
_cl}_e}_d
/e{{615 0 55 -13 562 560 _sc
562 296 _m
562 252 _l
149 252 _l
153 190 171 142 205 110 _c
238 78 284 62 344 62 _c
378 62 412 66 444 74 _c
476 82 509 95 541 113 _c
541 28 _l
509 14 476 3 442 -3 _c
408 -9 373 -13 339 -13 _c
251 -13 182 12 131 62 _c
80 112 55 181 55 268 _c
55 357 79 428 127 481 _c
175 533 241 560 323 560 _c
397 560 455 536 498 489 _c
}_e{540 441 562 377 562 296 _c
472 322 _m
471 371 457 410 431 440 _c
404 469 368 484 324 484 _c
274 484 234 469 204 441 _c
174 413 156 373 152 322 _c
472 322 _l
_cl}_e}_d
/g{{635 0 55 -207 544 560 _sc
454 280 _m
454 344 440 395 414 431 _c
387 467 349 485 301 485 _c
253 485 215 467 188 431 _c
161 395 148 344 148 280 _c
148 215 161 165 188 129 _c
215 93 253 75 301 75 _c
349 75 387 93 414 129 _c
440 165 454 215 454 280 _c
544 68 _m
544 -24 523 -93 482 -139 _c
440 -184 377 -207 292 -207 _c
260 -207 231 -204 203 -200 _c
175 -195 147 -188 121 -178 _c
}_e{121 -91 _l
147 -105 173 -115 199 -122 _c
225 -129 251 -133 278 -133 _c
336 -133 380 -117 410 -87 _c
439 -56 454 -10 454 52 _c
454 96 _l
435 64 411 40 382 24 _c
353 8 319 0 279 0 _c
211 0 157 25 116 76 _c
75 127 55 195 55 280 _c
55 364 75 432 116 483 _c
157 534 211 560 279 560 _c
319 560 353 552 382 536 _c
411 520 435 496 454 464 _c
454 547 _l
544 547 _l
}_e{544 68 _l
_cl}_e}_d
/r{411 0 91 0 411 560 _sc
411 463 _m
401 469 390 473 378 476 _c
366 478 353 480 339 480 _c
288 480 249 463 222 430 _c
194 397 181 350 181 288 _c
181 0 _l
91 0 _l
91 547 _l
181 547 _l
181 462 _l
199 495 224 520 254 536 _c
284 552 321 560 365 560 _c
371 560 378 559 386 559 _c
393 558 401 557 411 555 _c
411 463 _l
_cl}_d
/t{392 0 27 0 368 702 _sc
183 702 _m
183 547 _l
368 547 _l
368 477 _l
183 477 _l
183 180 _l
183 135 189 106 201 94 _c
213 81 238 75 276 75 _c
368 75 _l
368 0 _l
276 0 _l
206 0 158 13 132 39 _c
106 65 93 112 93 180 _c
93 477 _l
27 477 _l
27 547 _l
93 547 _l
93 702 _l
183 702 _l
_cl}_d
/u{634 0 85 -13 543 560 _sc
85 216 _m
85 547 _l
175 547 _l
175 219 _l
175 167 185 129 205 103 _c
225 77 255 64 296 64 _c
344 64 383 79 411 110 _c
439 141 453 183 453 237 _c
453 547 _l
543 547 _l
543 0 _l
453 0 _l
453 84 _l
431 50 405 26 377 10 _c
348 -5 315 -13 277 -13 _c
214 -13 166 6 134 45 _c
101 83 85 140 85 216 _c
311 560 _m
311 560 _l
_cl}_d
/bar{337 0 127 -235 210 764 _sc
210 764 _m
210 -235 _l
127 -235 _l
127 764 _l
210 764 _l
_cl}_d
/Omega{{764 0 38 0 726 738 _sc
726 87 _m
726 0 _l
433 0 _l
433 87 _l
491 118 536 161 568 215 _c
600 269 616 329 616 395 _c
616 473 594 535 552 583 _c
508 630 452 654 382 654 _c
311 654 254 630 211 583 _c
168 535 147 473 147 395 _c
147 329 163 269 195 215 _c
227 161 273 118 331 87 _c
331 0 _l
38 0 _l
38 87 _l
194 87 _l
142 132 105 179 81 228 _c
}_e{57 276 46 330 46 390 _c
46 493 77 577 140 642 _c
202 706 282 738 382 738 _c
480 738 561 706 624 642 _c
686 578 718 495 718 395 _c
718 331 706 276 683 228 _c
659 180 622 133 570 87 _c
726 87 _l
_cl}_e}_d
/partialdiff{{517 0 46 -13 471 662 _sc
213 -13 _m
167 -13 130 0 100 27 _c
64 60 46 106 46 166 _c
46 228 61 283 93 331 _c
125 380 171 405 229 405 _c
267 405 301 393 331 370 _c
348 356 363 337 375 313 _c
379 339 381 368 381 398 _c
381 442 376 476 366 502 _c
342 558 300 586 239 586 _c
216 586 187 579 151 565 _c
151 647 _l
189 657 224 662 258 662 _c
345 662 407 622 445 542 _c
}_e{462 504 471 457 471 401 _c
471 364 466 324 458 282 _c
438 175 401 96 348 45 _c
306 6 261 -13 213 -13 _c
130 151 _m
130 119 137 94 151 76 _c
166 57 185 48 209 48 _c
230 48 249 55 266 70 _c
289 90 309 117 327 150 _c
341 176 351 204 359 234 _c
329 304 290 339 240 339 _c
197 339 166 310 147 254 _c
135 218 130 184 130 151 _c
_cl}_e}_d
/minus{838 0 106 272 732 355 _sc
106 355 _m
732 355 _l
732 272 _l
106 272 _l
106 355 _l
_cl}_d
end readonly def

/BuildGlyph
 {exch begin
 CharStrings exch
 2 copy known not{pop /.notdef}if
 true 3 1 roll get exec
 end}_d

/BuildChar {
 1 index /Encoding get exch get
 1 index /BuildGlyph get exec
}_d

FontName currentdict end definefont pop
%!PS-Adobe-3.0 Resource-Font
%%Title: DejaVu Sans Oblique
%%Copyright: Copyright (c) 2003 by Bitstream, Inc. All Rights Reserved. Copyright (c) 2006 by Tavmjong Bah. All Rights Reserved. DejaVu changes are in public domain 
%%Creator: Converted from TrueType to type 3 by PPR
25 dict begin
/_d{bind def}bind def
/_m{moveto}_d
/_l{lineto}_d
/_cl{closepath eofill}_d
/_c{curveto}_d
/_sc{7 -1 roll{setcachedevice}{pop pop pop pop pop pop}ifelse}_d
/_e{exec}_d
/FontName /DejaVuSans-Oblique def
/PaintType 0 def
/FontMatrix[.001 0 0 .001 0 0]def
/FontBBox[-1016 -350 1659 1068]def
/FontType 3 def
/Encoding [ /B /I /L /d /h /i /v ] def
/FontInfo 10 dict dup begin
/FamilyName (DejaVu Sans) def
/FullName (DejaVu Sans Oblique) def
/Notice (Copyright (c) 2003 by Bitstream, Inc. All Rights Reserved. Copyright (c) 2006 by Tavmjong Bah. All Rights Reserved. DejaVu changes are in public domain ) def
/Weight (Oblique) def
/Version (Version 2.35) def
/ItalicAngle -11.0 def
/isFixedPitch false def
/UnderlinePosition -130 def
/UnderlineThickness 90 def
end readonly def
/CharStrings 8 dict dup begin
/.notdef 0 def
/B{{686 0 27 0 625 729 _sc
169 729 _m
421 729 _l
489 729 540 716 574 691 _c
608 665 625 627 625 576 _c
625 529 610 489 581 455 _c
552 421 514 400 467 393 _c
507 383 537 366 557 340 _c
577 314 588 280 588 238 _c
588 164 560 106 506 64 _c
452 21 378 0 284 0 _c
27 0 _l
169 729 _l
193 348 _m
141 81 _l
300 81 _l
359 81 405 94 437 122 _c
469 149 486 188 486 238 _c
}_e{486 276 475 303 454 321 _c
432 339 398 348 351 348 _c
193 348 _l
251 648 _m
208 428 _l
355 428 _l
407 428 448 439 478 462 _c
507 485 522 517 522 557 _c
522 588 512 611 492 626 _c
472 640 440 648 397 648 _c
251 648 _l
_cl}_e}_d
/I{295 0 27 0 268 729 _sc
169 729 _m
268 729 _l
126 0 _l
27 0 _l
169 729 _l
_cl}_d
/L{557 0 27 0 497 729 _sc
168 729 _m
267 729 _l
142 82 _l
497 82 _l
481 0 _l
27 0 _l
168 729 _l
_cl}_d
/d{{635 0 46 -13 639 760 _sc
418 82 _m
394 50 365 27 332 11 _c
299 -5 263 -13 223 -13 _c
168 -13 125 5 93 42 _c
61 79 46 130 46 195 _c
46 249 55 300 75 349 _c
94 398 122 442 158 481 _c
182 507 209 526 239 540 _c
269 553 301 560 335 560 _c
370 560 401 551 428 534 _c
454 517 475 493 490 462 _c
549 760 _l
639 760 _l
491 0 _l
401 0 _l
418 82 _l
139 211 _m
}_e{139 163 149 126 171 100 _c
192 74 222 61 260 61 _c
288 61 314 67 338 81 _c
362 95 383 115 401 141 _c
420 168 435 200 446 236 _c
457 272 463 307 463 342 _c
463 387 452 422 431 448 _c
409 473 380 486 343 486 _c
314 486 287 479 263 466 _c
239 452 218 433 201 408 _c
182 381 167 350 156 314 _c
144 278 139 243 139 211 _c
_cl}_e}_d
/h{{634 0 35 0 566 760 _sc
557 330 _m
493 0 _l
403 0 _l
467 327 _l
469 342 471 355 473 367 _c
475 379 476 388 476 395 _c
476 422 467 443 450 459 _c
432 474 408 482 378 482 _c
330 482 288 465 253 433 _c
217 400 194 357 184 303 _c
125 0 _l
35 0 _l
183 760 _l
273 760 _l
215 461 _l
237 491 266 515 302 533 _c
337 551 374 560 414 560 _c
462 560 499 547 526 521 _c
}_e{552 495 566 458 566 411 _c
566 399 565 387 564 374 _c
562 360 560 346 557 330 _c
_cl}_e}_d
/i{278 0 35 0 273 760 _sc
183 760 _m
273 760 _l
251 646 _l
161 646 _l
183 760 _l
142 547 _m
232 547 _l
125 0 _l
35 0 _l
142 547 _l
_cl}_d
/v{592 0 72 0 604 547 _sc
72 547 _m
167 547 _l
247 82 _l
509 547 _l
604 547 _l
293 0 _l
172 0 _l
72 547 _l
_cl}_d
end readonly def

/BuildGlyph
 {exch begin
 CharStrings exch
 2 copy known not{pop /.notdef}if
 true 3 1 roll get exec
 end}_d

/BuildChar {
 1 index /Encoding get exch get
 1 index /BuildGlyph get exec
}_d

FontName currentdict end definefont pop
end
%%EndProlog
mpldict begin
79.103 226.187 translate
453.793 339.626 0 0 clipbox
gsave
0 0 m
453.793182 0 l
453.793182 339.62625 l
0 339.62625 l
cl
1.000 setgray
fill
grestore
gsave
59.2 51.10625 m
446.593182 51.10625 l
446.593182 332.42625 l
59.2 332.42625 l
cl
1.000 setgray
fill
grestore
0.800 setlinewidth
1 setlinejoin
0 setlinecap
[] 0 setdash
0.000 setgray
gsave
/o {
gsave
newpath
translate
0.8 setlinewidth
1 setlinejoin
0 setlinecap
0 0 m
0 -3.5 l

gsave
0.000 setgray
fill
grestore
stroke
grestore
} bind def
76.8088 51.1063 o
grestore
/DejaVuSans findfont
16.000 scalefont
setfont
gsave
71.715031 31.950000 translate
0.000000 rotate
0.000000 0 m /two glyphshow
grestore
gsave
/o {
gsave
newpath
translate
0.8 setlinewidth
1 setlinejoin
0 setlinecap
0 0 m
0 -3.5 l

gsave
0.000 setgray
fill
grestore
stroke
grestore
} bind def
135.505 51.1063 o
grestore
gsave
130.410968 31.950000 translate
0.000000 rotate
0.000000 0 m /three glyphshow
grestore
gsave
/o {
gsave
newpath
translate
0.8 setlinewidth
1 setlinejoin
0 setlinecap
0 0 m
0 -3.5 l

gsave
0.000 setgray
fill
grestore
stroke
grestore
} bind def
194.201 51.1063 o
grestore
gsave
189.106904 31.950000 translate
0.000000 rotate
0.000000 0 m /four glyphshow
grestore
gsave
/o {
gsave
newpath
translate
0.8 setlinewidth
1 setlinejoin
0 setlinecap
0 0 m
0 -3.5 l

gsave
0.000 setgray
fill
grestore
stroke
grestore
} bind def
252.897 51.1063 o
grestore
gsave
247.802841 31.950000 translate
0.000000 rotate
0.000000 0 m /five glyphshow
grestore
gsave
/o {
gsave
newpath
translate
0.8 setlinewidth
1 setlinejoin
0 setlinecap
0 0 m
0 -3.5 l

gsave
0.000 setgray
fill
grestore
stroke
grestore
} bind def
311.593 51.1063 o
grestore
gsave
306.498778 31.950000 translate
0.000000 rotate
0.000000 0 m /six glyphshow
grestore
gsave
/o {
gsave
newpath
translate
0.8 setlinewidth
1 setlinejoin
0 setlinecap
0 0 m
0 -3.5 l

gsave
0.000 setgray
fill
grestore
stroke
grestore
} bind def
370.288 51.1063 o
grestore
gsave
365.194714 31.950000 translate
0.000000 rotate
0.000000 0 m /seven glyphshow
grestore
gsave
/o {
gsave
newpath
translate
0.8 setlinewidth
1 setlinejoin
0 setlinecap
0 0 m
0 -3.5 l

gsave
0.000 setgray
fill
grestore
stroke
grestore
} bind def
428.984 51.1063 o
grestore
gsave
423.890651 31.950000 translate
0.000000 rotate
0.000000 0 m /eight glyphshow
grestore
/DejaVuSans findfont
18.000 scalefont
setfont
gsave
166.959091 10.950000 translate
0.000000 rotate
0.000000 0 m /Q glyphshow
14.167969 0 m /u glyphshow
25.576172 0 m /a glyphshow
36.606445 0 m /d glyphshow
48.032227 0 m /r glyphshow
55.432617 0 m /a glyphshow
66.462891 0 m /t glyphshow
73.520508 0 m /u glyphshow
84.928711 0 m /r glyphshow
91.954102 0 m /e glyphshow
103.028320 0 m /space glyphshow
108.750000 0 m /d glyphshow
120.175781 0 m /e glyphshow
131.250000 0 m /g glyphshow
142.675781 0 m /r glyphshow
149.701172 0 m /e glyphshow
160.775391 0 m /e glyphshow
grestore
gsave
/o {
gsave
newpath
translate
0.8 setlinewidth
1 setlinejoin
0 setlinecap
-0 0 m
-3.5 0 l

gsave
0.000 setgray
fill
grestore
stroke
grestore
} bind def
59.2 94.2732 o
grestore
gsave
7.200000 87.937231 translate
0.000000 rotate
/DejaVuSans findfont
16.0 scalefont
setfont
0.000000 0.562500 moveto
/one glyphshow
10.179688 0.562500 moveto
/zero glyphshow
/DejaVuSans findfont
11.2 scalefont
setfont
20.512500 6.687500 moveto
/minus glyphshow
29.896875 6.687500 moveto
/one glyphshow
37.022656 6.687500 moveto
/two glyphshow

grestore
gsave
/o {
gsave
newpath
translate
0.8 setlinewidth
1 setlinejoin
0 setlinecap
-0 0 m
-3.5 0 l

gsave
0.000 setgray
fill
grestore
stroke
grestore
} bind def
59.2 139.129 o
grestore
gsave
7.200000 132.793173 translate
0.000000 rotate
/DejaVuSans findfont
16.0 scalefont
setfont
0.000000 0.562500 moveto
/one glyphshow
10.179688 0.562500 moveto
/zero glyphshow
/DejaVuSans findfont
11.2 scalefont
setfont
20.512500 6.687500 moveto
/minus glyphshow
29.896875 6.687500 moveto
/one glyphshow
37.022656 6.687500 moveto
/zero glyphshow

grestore
gsave
/o {
gsave
newpath
translate
0.8 setlinewidth
1 setlinejoin
0 setlinecap
-0 0 m
-3.5 0 l

gsave
0.000 setgray
fill
grestore
stroke
grestore
} bind def
59.2 183.985 o
grestore
gsave
14.200000 177.649115 translate
0.000000 rotate
/DejaVuSans findfont
16.0 scalefont
setfont
0.000000 0.562500 moveto
/one glyphshow
10.179688 0.562500 moveto
/zero glyphshow
/DejaVuSans findfont
11.2 scalefont
setfont
20.512500 6.687500 moveto
/minus glyphshow
29.896875 6.687500 moveto
/eight glyphshow

grestore
gsave
/o {
gsave
newpath
translate
0.8 setlinewidth
1 setlinejoin
0 setlinecap
-0 0 m
-3.5 0 l

gsave
0.000 setgray
fill
grestore
stroke
grestore
} bind def
59.2 228.841 o
grestore
gsave
14.200000 222.505058 translate
0.000000 rotate
/DejaVuSans findfont
16.0 scalefont
setfont
0.000000 0.562500 moveto
/one glyphshow
10.179688 0.562500 moveto
/zero glyphshow
/DejaVuSans findfont
11.2 scalefont
setfont
20.512500 6.687500 moveto
/minus glyphshow
29.896875 6.687500 moveto
/six glyphshow

grestore
gsave
/o {
gsave
newpath
translate
0.8 setlinewidth
1 setlinejoin
0 setlinecap
-0 0 m
-3.5 0 l

gsave
0.000 setgray
fill
grestore
stroke
grestore
} bind def
59.2 273.697 o
grestore
gsave
14.200000 267.361000 translate
0.000000 rotate
/DejaVuSans findfont
16.0 scalefont
setfont
0.000000 0.704688 moveto
/one glyphshow
10.179688 0.704688 moveto
/zero glyphshow
/DejaVuSans findfont
11.2 scalefont
setfont
20.512500 6.829688 moveto
/minus glyphshow
29.896875 6.829688 moveto
/four glyphshow

grestore
gsave
/o {
gsave
newpath
translate
0.8 setlinewidth
1 setlinejoin
0 setlinecap
-0 0 m
-3.5 0 l

gsave
0.000 setgray
fill
grestore
stroke
grestore
} bind def
59.2 318.553 o
grestore
gsave
14.200000 312.216942 translate
0.000000 rotate
/DejaVuSans findfont
16.0 scalefont
setfont
0.000000 0.562500 moveto
/one glyphshow
10.179688 0.562500 moveto
/zero glyphshow
/DejaVuSans findfont
11.2 scalefont
setfont
20.512500 6.687500 moveto
/minus glyphshow
29.896875 6.687500 moveto
/two glyphshow

grestore
1.000 setlinewidth
1.000 0.000 0.000 setrgbcolor
gsave
387.4 281.3 59.2 51.11 clipbox
/o {
gsave
newpath
translate
1.0 setlinewidth
1 setlinejoin
0 setlinecap
0 -4 m
1.060812 -4 2.078319 -3.578535 2.828427 -2.828427 c
3.578535 -2.078319 4 -1.060812 4 0 c
4 1.060812 3.578535 2.078319 2.828427 2.828427 c
2.078319 3.578535 1.060812 4 0 4 c
-1.060812 4 -2.078319 3.578535 -2.828427 2.828427 c
-3.578535 2.078319 -4 1.060812 -4 0 c
-4 -1.060812 -3.578535 -2.078319 -2.828427 -2.828427 c
-2.078319 -3.578535 -1.060812 -4 0 -4 c
cl

gsave
1.000 0.000 0.000 setrgbcolor
fill
grestore
stroke
grestore
} bind def
76.8088 238.781 o
135.505 158.448 o
194.201 65.1931 o
252.897 66.2518 o
311.593 63.8935 o
370.288 65.3 o
428.984 65.2996 o
grestore
2 setlinejoin
0.000 0.000 1.000 setrgbcolor
gsave
387.4 281.3 59.2 51.11 clipbox
/o {
gsave
newpath
translate
1.0 setlinewidth
2 setlinejoin
0 setlinecap
0 8 m
-1.796112 2.472136 l
-7.608452 2.472136 l
-2.90617 -0.944272 l
-4.702282 -6.472136 l
-0 -3.055728 l
4.702282 -6.472136 l
2.90617 -0.944272 l
7.608452 2.472136 l
1.796112 2.472136 l
cl

gsave
0.000 0.000 1.000 setrgbcolor
fill
grestore
stroke
grestore
} bind def
76.8088 319.639 o
135.505 236.842 o
194.201 150.542 o
252.897 84.0291 o
311.593 82.3832 o
370.288 100.009 o
428.984 95.0945 o
grestore
0.800 setlinewidth
0 setlinejoin
2 setlinecap
0.000 setgray
gsave
59.2 51.10625 m
59.2 332.42625 l
stroke
grestore
gsave
446.593182 51.10625 m
446.593182 332.42625 l
stroke
grestore
gsave
59.2 51.10625 m
446.593182 51.10625 l
stroke
grestore
gsave
59.2 332.42625 m
446.593182 332.42625 l
stroke
grestore
1.000 setlinewidth
0 setlinecap
0.800 setgray
gsave
241.393182 262.02625 m
433.993182 262.02625 l
436.393182 262.02625 437.593182 263.22625 437.593182 265.62625 c
437.593182 319.82625 l
437.593182 322.22625 436.393182 323.42625 433.993182 323.42625 c
241.393182 323.42625 l
238.993182 323.42625 237.793182 322.22625 237.793182 319.82625 c
237.793182 265.62625 l
237.793182 263.22625 238.993182 262.02625 241.393182 262.02625 c
cl
gsave
1.000 setgray
fill
grestore
stroke
grestore
1 setlinejoin
1.000 0.000 0.000 setrgbcolor
gsave
/o {
gsave
newpath
translate
1.0 setlinewidth
1 setlinejoin
0 setlinecap
0 -4 m
1.060812 -4 2.078319 -3.578535 2.828427 -2.828427 c
3.578535 -2.078319 4 -1.060812 4 0 c
4 1.060812 3.578535 2.078319 2.828427 2.828427 c
2.078319 3.578535 1.060812 4 0 4 c
-1.060812 4 -2.078319 3.578535 -2.828427 2.828427 c
-3.578535 2.078319 -4 1.060812 -4 0 c
-4 -1.060812 -3.578535 -2.078319 -2.828427 -2.828427 c
-2.078319 -3.578535 -1.060812 -4 0 -4 c
cl

gsave
1.000 0.000 0.000 setrgbcolor
fill
grestore
stroke
grestore
} bind def
262.993 308.526 o
grestore
0.000 setgray
gsave
295.393182 302.226250 translate
0.000000 rotate
/DejaVuSans findfont
18.0 scalefont
setfont
0.000000 0.250000 moveto
/bar glyphshow
6.064453 0.250000 moveto
/bar glyphshow
/DejaVuSans-Oblique findfont
18.0 scalefont
setfont
12.128906 0.250000 moveto
/d glyphshow
23.554688 0.250000 moveto
/i glyphshow
28.555664 0.250000 moveto
/v glyphshow
42.130430 0.250000 moveto
/B glyphshow
/DejaVuSans-Oblique findfont
12.6 scalefont
setfont
54.479062 -2.703125 moveto
/h glyphshow
/DejaVuSans findfont
18.0 scalefont
setfont
62.956992 0.250000 moveto
/bar glyphshow
69.021445 0.250000 moveto
/bar glyphshow
/DejaVuSans-Oblique findfont
12.6 scalefont
setfont
75.258164 -2.703125 moveto
/L glyphshow
/DejaVuSans findfont
8.819999999999999 scalefont
setfont
83.162285 2.120313 moveto
/two glyphshow
/DejaVuSans findfont
12.6 scalefont
setfont
89.118369 -2.703125 moveto
/parenleft glyphshow
94.034092 -2.703125 moveto
/Omega glyphshow
103.662510 -2.703125 moveto
/parenright glyphshow

grestore
2 setlinejoin
0.000 0.000 1.000 setrgbcolor
gsave
/o {
gsave
newpath
translate
1.0 setlinewidth
2 setlinejoin
0 setlinecap
0 8 m
-1.796112 2.472136 l
-7.608452 2.472136 l
-2.90617 -0.944272 l
-4.702282 -6.472136 l
-0 -3.055728 l
4.702282 -6.472136 l
2.90617 -0.944272 l
7.608452 2.472136 l
1.796112 2.472136 l
cl

gsave
0.000 0.000 1.000 setrgbcolor
fill
grestore
stroke
grestore
} bind def
262.993 280.526 o
grestore
0.000 setgray
gsave
295.393182 274.226250 translate
0.000000 rotate
/DejaVuSans findfont
18.0 scalefont
setfont
0.000000 0.250000 moveto
/bar glyphshow
6.064453 0.250000 moveto
/bar glyphshow
/DejaVuSans-Oblique findfont
18.0 scalefont
setfont
12.128906 0.250000 moveto
/d glyphshow
23.554688 0.250000 moveto
/i glyphshow
28.555664 0.250000 moveto
/v glyphshow
42.130430 0.250000 moveto
/I glyphshow
/DejaVuSans-Oblique findfont
12.6 scalefont
setfont
47.439023 -2.703125 moveto
/h glyphshow
/DejaVuSans findfont
18.0 scalefont
setfont
55.916953 0.250000 moveto
/parenleft glyphshow
/DejaVuSans-Oblique findfont
18.0 scalefont
setfont
62.939414 0.250000 moveto
/B glyphshow
/DejaVuSans findfont
18.0 scalefont
setfont
75.288047 0.250000 moveto
/parenright glyphshow
82.310508 0.250000 moveto
/bar glyphshow
88.374961 0.250000 moveto
/bar glyphshow
/DejaVuSans-Oblique findfont
12.6 scalefont
setfont
94.611680 -2.703125 moveto
/L glyphshow
/DejaVuSans findfont
8.819999999999999 scalefont
setfont
102.515801 2.120313 moveto
/two glyphshow
/DejaVuSans findfont
12.6 scalefont
setfont
108.471885 -2.703125 moveto
/parenleft glyphshow
113.387607 -2.703125 moveto
/partialdiff glyphshow
119.902939 -2.703125 moveto
/Omega glyphshow
129.531357 -2.703125 moveto
/parenright glyphshow

grestore

end
showpage
